{
  "results": [
    {
      "id": 431421,
      "adult": false
    },
    {
      "id": 1403458,
      "adult": false
    },
    {
      "id": 13353,
      "adult": false
    },
    {
      "id": 961788,
      "adult": true
    },
    {
      "id": 33701,
      "adult": false
    },
    {
      "id": 1079244,
      "adult": false
    },
    {
      "id": 1400349,
      "adult": false
    },
    {
      "id": 1263591,
      "adult": false
    },
    {
      "id": 1244078,
      "adult": false
    },
    {
      "id": 1284681,
      "adult": false
    },
    {
      "id": 1383078,
      "adult": false
    },
    {
      "id": 1047307,
      "adult": false
    },
    {
      "id": 1089267,
      "adult": false
    },
    {
      "id": 1208033,
      "adult": false
    },
    {
      "id": 1103017,
      "adult": false
    },
    {
      "id": 1223890,
      "adult": false
    },
    {
      "id": 1120762,
      "adult": false
    },
    {
      "id": 1277112,
      "adult": false
    },
    {
      "id": 1182600,
      "adult": false
    },
    {
      "id": 1282785,
      "adult": false
    },
    {
      "id": 1287535,
      "adult": false
    },
    {
      "id": 1338583,
      "adult": false
    },
    {
      "id": 1354069,
      "adult": false
    },
    {
      "id": 1367063,
      "adult": false
    },
    {
      "id": 1372393,
      "adult": false
    },
    {
      "id": 1379468,
      "adult": false
    },
    {
      "id": 1383687,
      "adult": false
    },
    {
      "id": 1385727,
      "adult": false
    },
    {
      "id": 1389371,
      "adult": false
    },
    {
      "id": 1390321,
      "adult": false
    },
    {
      "id": 1393143,
      "adult": false
    },
    {
      "id": 1394392,
      "adult": false
    },
    {
      "id": 1394506,
      "adult": false
    },
    {
      "id": 1395642,
      "adult": false
    },
    {
      "id": 1396485,
      "adult": false
    },
    {
      "id": 1396781,
      "adult": false
    },
    {
      "id": 1397183,
      "adult": false
    },
    {
      "id": 1397758,
      "adult": false
    },
    {
      "id": 1397824,
      "adult": false
    },
    {
      "id": 1398785,
      "adult": false
    },
    {
      "id": 1398980,
      "adult": false
    },
    {
      "id": 1399862,
      "adult": false
    },
    {
      "id": 1400225,
      "adult": false
    },
    {
      "id": 1400232,
      "adult": false
    },
    {
      "id": 1401185,
      "adult": false
    },
    {
      "id": 1401786,
      "adult": false
    },
    {
      "id": 1402166,
      "adult": false
    },
    {
      "id": 1402450,
      "adult": false
    },
    {
      "id": 1390632,
      "adult": false
    },
    {
      "id": 1026674,
      "adult": false
    },
    {
      "id": 1043887,
      "adult": false
    },
    {
      "id": 1217690,
      "adult": false
    },
    {
      "id": 1112559,
      "adult": false
    },
    {
      "id": 1229336,
      "adult": false
    },
    {
      "id": 1235431,
      "adult": false
    },
    {
      "id": 1153230,
      "adult": false
    },
    {
      "id": 984500,
      "adult": false
    },
    {
      "id": 1179715,
      "adult": false
    },
    {
      "id": 1285660,
      "adult": false
    },
    {
      "id": 1186350,
      "adult": false
    },
    {
      "id": 1296484,
      "adult": false
    },
    {
      "id": 1296500,
      "adult": false
    },
    {
      "id": 1355030,
      "adult": false
    },
    {
      "id": 1361202,
      "adult": false
    },
    {
      "id": 1371030,
      "adult": false
    },
    {
      "id": 1373095,
      "adult": false
    },
    {
      "id": 1381755,
      "adult": false
    },
    {
      "id": 1388604,
      "adult": false
    },
    {
      "id": 1388916,
      "adult": false
    },
    {
      "id": 1390390,
      "adult": false
    },
    {
      "id": 1393868,
      "adult": false
    },
    {
      "id": 1398270,
      "adult": false
    },
    {
      "id": 1398274,
      "adult": false
    },
    {
      "id": 1399718,
      "adult": false
    },
    {
      "id": 1399790,
      "adult": false
    },
    {
      "id": 1401768,
      "adult": false
    },
    {
      "id": 1402540,
      "adult": false
    },
    {
      "id": 1402811,
      "adult": false
    },
    {
      "id": 1403387,
      "adult": false
    },
    {
      "id": 1403334,
      "adult": false
    },
    {
      "id": 947674,
      "adult": false
    },
    {
      "id": 1257394,
      "adult": false
    },
    {
      "id": 1403398,
      "adult": false
    },
    {
      "id": 1403294,
      "adult": false
    },
    {
      "id": 1058641,
      "adult": false
    },
    {
      "id": 1397698,
      "adult": false
    },
    {
      "id": 1403265,
      "adult": false
    },
    {
      "id": 1403268,
      "adult": false
    },
    {
      "id": 847692,
      "adult": false
    },
    {
      "id": 1400769,
      "adult": false
    },
    {
      "id": 1400789,
      "adult": false
    },
    {
      "id": 1403473,
      "adult": false
    },
    {
      "id": 1400731,
      "adult": false
    },
    {
      "id": 1400782,
      "adult": false
    },
    {
      "id": 1400795,
      "adult": false
    },
    {
      "id": 1400798,
      "adult": false
    },
    {
      "id": 1400776,
      "adult": false
    },
    {
      "id": 1400780,
      "adult": false
    },
    {
      "id": 1400783,
      "adult": false
    },
    {
      "id": 1400794,
      "adult": false
    }
  ],
  "page": 1,
  "total_pages": 64,
  "total_results": 6366
}
